<?xml version="1.0" encoding="utf-8"?>
<!-- Generator: Adobe Illustrator 16.0.0, SVG Export Plug-In . SVG Version: 6.00 Build 0)  -->
<!DOCTYPE svg PUBLIC "-//W3C//DTD SVG 1.1//EN" "http://www.w3.org/Graphics/SVG/1.1/DTD/svg11.dtd">
<svg version="1.1" id="Capa_1" xmlns="http://www.w3.org/2000/svg" xmlns:xlink="http://www.w3.org/1999/xlink" x="0px" y="0px"
	 width="145px" height="50px" viewBox="0 0 145 50" enable-background="new 0 0 145 50" xml:space="preserve">
<g>
	<g>
		<path fill="#FFFFFF" d="M69.269,18.363c0,0.148-0.021,0.309-0.06,0.477c-0.041,0.17-0.08,0.315-0.12,0.434
			c-0.37,1.076-0.775,2.158-1.217,3.237c-0.444,1.08-0.927,2.149-1.451,3.205c-0.522,1.056-1.083,2.093-1.682,3.108
			c-0.6,1.016-1.236,1.996-1.914,2.943c-0.091,0.142-0.207,0.254-0.352,0.338c-0.145,0.086-0.319,0.147-0.522,0.191
			c-0.205,0.047-0.437,0.074-0.696,0.083c-0.259,0.011-0.558,0.017-0.896,0.017c-0.419,0-0.762-0.014-1.032-0.037
			c-0.269-0.024-0.475-0.067-0.62-0.129c-0.145-0.061-0.244-0.142-0.299-0.244c-0.055-0.105-0.086-0.237-0.096-0.396l-0.688-8.223
			l-3.678,8.191c-0.08,0.17-0.167,0.31-0.261,0.42c-0.095,0.107-0.234,0.19-0.419,0.252c-0.185,0.061-0.429,0.104-0.731,0.127
			c-0.304,0.024-0.701,0.039-1.189,0.039c-0.478,0-0.869-0.015-1.173-0.039c-0.304-0.023-0.538-0.066-0.703-0.127
			c-0.164-0.062-0.278-0.143-0.343-0.246c-0.065-0.104-0.103-0.236-0.113-0.396l-1.151-12.062c-0.01-0.102-0.018-0.215-0.022-0.346
			c-0.005-0.13-0.007-0.242-0.007-0.344c0-0.189,0.02-0.344,0.06-0.463c0.039-0.119,0.129-0.217,0.269-0.292
			c0.139-0.074,0.341-0.129,0.605-0.165c0.264-0.035,0.625-0.052,1.083-0.052c0.389,0,0.697,0.01,0.926,0.028
			c0.229,0.021,0.406,0.057,0.532,0.104c0.124,0.051,0.206,0.118,0.247,0.203c0.04,0.084,0.06,0.187,0.06,0.307l0.643,9.806
			l-0.015,0.179l0.089-0.179l4.395-9.806c0.05-0.12,0.113-0.223,0.187-0.307c0.076-0.084,0.185-0.152,0.329-0.203
			c0.144-0.049,0.333-0.083,0.567-0.104c0.234-0.021,0.525-0.028,0.875-0.028c0.369,0,0.668,0.013,0.897,0.036
			c0.229,0.025,0.408,0.061,0.538,0.104c0.13,0.046,0.219,0.104,0.269,0.179c0.049,0.076,0.08,0.164,0.089,0.264l0.777,9.834
			l0.015,0.166l0.09-0.166c0.368-0.637,0.741-1.346,1.113-2.122c0.374-0.777,0.74-1.589,1.099-2.437
			c0.358-0.847,0.697-1.714,1.016-2.602c0.319-0.887,0.607-1.759,0.866-2.614c0.02-0.13,0.07-0.233,0.15-0.313
			c0.079-0.08,0.199-0.146,0.357-0.194c0.16-0.05,0.364-0.084,0.614-0.104c0.249-0.02,0.567-0.028,0.956-0.028
			c0.369,0,0.668,0.01,0.897,0.028c0.23,0.021,0.406,0.052,0.531,0.092c0.125,0.039,0.207,0.089,0.247,0.147
			C69.249,18.199,69.269,18.273,69.269,18.363z"/>
		<path fill="#FFFFFF" d="M84.096,22.952c0,0.717-0.066,1.455-0.201,2.211c-0.135,0.757-0.348,1.497-0.635,2.221
			c-0.289,0.722-0.662,1.4-1.115,2.033s-0.996,1.19-1.629,1.675c-0.633,0.48-1.356,0.863-2.174,1.141
			c-0.818,0.281-1.74,0.42-2.766,0.42c-1.008,0-1.877-0.116-2.609-0.352c-0.731-0.232-1.342-0.576-1.831-1.029
			c-0.489-0.453-0.853-1.013-1.092-1.674c-0.239-0.664-0.358-1.423-0.358-2.281c0-0.717,0.068-1.455,0.202-2.211
			c0.135-0.76,0.346-1.496,0.636-2.213c0.288-0.718,0.66-1.396,1.114-2.041c0.453-0.641,0.996-1.203,1.627-1.68
			c0.635-0.479,1.356-0.859,2.176-1.136c0.815-0.28,1.738-0.418,2.766-0.418c1.006,0,1.875,0.116,2.609,0.35
			c0.729,0.234,1.34,0.577,1.83,1.031c0.487,0.455,0.85,1.011,1.09,1.674C83.977,21.335,84.096,22.094,84.096,22.952z
			 M80.209,23.205c0-0.42-0.043-0.79-0.127-1.114c-0.084-0.323-0.225-0.596-0.418-0.819c-0.193-0.225-0.443-0.397-0.748-0.518
			s-0.676-0.181-1.113-0.181c-0.5,0-0.947,0.099-1.346,0.294c-0.398,0.191-0.756,0.456-1.068,0.783
			c-0.313,0.33-0.586,0.711-0.813,1.144c-0.229,0.435-0.418,0.89-0.568,1.368c-0.147,0.477-0.258,0.964-0.33,1.457
			c-0.067,0.494-0.104,0.964-0.104,1.412c0,0.419,0.043,0.794,0.127,1.124c0.086,0.327,0.225,0.604,0.418,0.827
			c0.194,0.226,0.444,0.396,0.748,0.516c0.307,0.119,0.676,0.182,1.112,0.182c0.498,0,0.947-0.099,1.349-0.293
			c0.396-0.193,0.752-0.457,1.065-0.793c0.314-0.334,0.586-0.718,0.814-1.15c0.229-0.432,0.42-0.892,0.568-1.375
			c0.147-0.483,0.26-0.969,0.328-1.457C80.174,24.122,80.209,23.654,80.209,23.205z"/>
		<path fill="#FFFFFF" d="M96.592,18.257c0,0.07-0.01,0.195-0.031,0.374c-0.02,0.182-0.049,0.389-0.088,0.627
			s-0.09,0.486-0.149,0.74s-0.128,0.492-0.199,0.71c-0.076,0.22-0.162,0.397-0.256,0.539c-0.097,0.14-0.195,0.209-0.308,0.209
			c-0.09,0-0.18-0.019-0.27-0.052c-0.088-0.035-0.189-0.069-0.299-0.105c-0.109-0.033-0.23-0.068-0.359-0.104
			c-0.129-0.034-0.277-0.053-0.447-0.053c-0.34,0-0.699,0.129-1.084,0.389s-0.75,0.6-1.1,1.023s-0.658,0.916-0.932,1.48
			c-0.273,0.563-0.473,1.152-0.592,1.771l-1.195,5.992c-0.021,0.1-0.068,0.188-0.143,0.262c-0.076,0.074-0.189,0.138-0.345,0.187
			c-0.155,0.05-0.354,0.087-0.604,0.112c-0.25,0.023-0.553,0.039-0.912,0.039c-0.367,0-0.67-0.016-0.904-0.039
			c-0.234-0.025-0.42-0.063-0.555-0.112c-0.133-0.05-0.221-0.111-0.26-0.187c-0.041-0.072-0.054-0.162-0.031-0.262l2.66-13.348
			c0.02-0.102,0.065-0.186,0.137-0.264c0.068-0.073,0.172-0.133,0.305-0.18c0.135-0.044,0.311-0.078,0.523-0.103
			c0.215-0.025,0.473-0.038,0.77-0.038c0.311,0,0.561,0.013,0.756,0.038c0.193,0.024,0.348,0.06,0.457,0.103
			c0.107,0.047,0.18,0.105,0.217,0.18c0.033,0.076,0.041,0.162,0.021,0.264l-0.42,2.119c0.24-0.428,0.516-0.82,0.83-1.178
			c0.314-0.359,0.648-0.672,1.002-0.936s0.719-0.471,1.1-0.62c0.379-0.149,0.752-0.224,1.121-0.224c0.148,0,0.301,0.01,0.455,0.027
			c0.154,0.021,0.299,0.047,0.432,0.076c0.138,0.029,0.256,0.066,0.359,0.111s0.186,0.092,0.246,0.143
			C96.561,18.035,96.592,18.128,96.592,18.257z"/>
		<path fill="#FFFFFF" d="M110.881,18.408c0,0.158-0.064,0.347-0.199,0.56c-0.137,0.216-0.358,0.486-0.668,0.816l-4.707,4.438
			l3.063,6.428c0.103,0.238,0.17,0.447,0.211,0.627s0.06,0.32,0.06,0.418c0,0.121-0.031,0.227-0.097,0.314
			c-0.063,0.092-0.176,0.164-0.33,0.225c-0.153,0.06-0.362,0.103-0.627,0.127c-0.264,0.024-0.596,0.039-0.994,0.039
			c-0.397,0-0.721-0.01-0.965-0.03c-0.241-0.021-0.435-0.056-0.565-0.104c-0.136-0.05-0.236-0.113-0.299-0.195
			c-0.066-0.077-0.113-0.18-0.146-0.299l-3.152-7.024l-1.405,7.056c-0.029,0.1-0.08,0.188-0.156,0.262
			c-0.074,0.074-0.188,0.138-0.344,0.187c-0.154,0.05-0.355,0.087-0.605,0.112c-0.248,0.023-0.553,0.039-0.912,0.039
			c-0.367,0-0.67-0.016-0.904-0.039c-0.234-0.025-0.416-0.061-0.545-0.104c-0.131-0.045-0.217-0.104-0.26-0.18
			c-0.045-0.074-0.061-0.161-0.039-0.263l3.945-19.67c0.02-0.1,0.064-0.188,0.135-0.268c0.07-0.079,0.186-0.146,0.344-0.202
			c0.16-0.055,0.361-0.097,0.605-0.128c0.244-0.027,0.551-0.045,0.92-0.045s0.67,0.018,0.904,0.045
			c0.233,0.031,0.416,0.073,0.545,0.128c0.129,0.056,0.215,0.123,0.254,0.202c0.041,0.08,0.051,0.169,0.029,0.268l-2.332,11.705
			l4.994-5.334c0.102-0.119,0.207-0.224,0.321-0.308c0.113-0.084,0.263-0.151,0.438-0.203c0.183-0.049,0.396-0.083,0.65-0.103
			c0.256-0.021,0.572-0.029,0.949-0.029c0.369,0,0.678,0.009,0.928,0.029c0.25,0.02,0.441,0.052,0.584,0.097
			c0.141,0.044,0.234,0.103,0.291,0.172C110.854,18.238,110.881,18.318,110.881,18.408z"/>
		<path fill="#FFFFFF" d="M124.021,21.396c0,0.719-0.164,1.362-0.486,1.935c-0.324,0.575-0.828,1.067-1.51,1.481
			c-0.685,0.412-1.549,0.729-2.603,0.948c-1.051,0.218-2.303,0.328-3.76,0.328h-1.375c-0.039,0.229-0.07,0.457-0.09,0.681
			c-0.021,0.223-0.029,0.432-0.029,0.619c0,0.809,0.209,1.416,0.629,1.824c0.418,0.409,1.091,0.613,2.017,0.613
			c0.658,0,1.25-0.049,1.771-0.143c0.522-0.096,0.981-0.199,1.377-0.314c0.392-0.114,0.72-0.219,0.979-0.313
			c0.258-0.096,0.449-0.144,0.567-0.144c0.119,0,0.201,0.034,0.255,0.104c0.051,0.067,0.073,0.178,0.073,0.33
			c0,0.17-0.017,0.36-0.045,0.582c-0.028,0.221-0.071,0.436-0.127,0.649c-0.058,0.214-0.125,0.416-0.211,0.604
			c-0.084,0.188-0.183,0.334-0.291,0.434c-0.119,0.119-0.338,0.238-0.656,0.357c-0.319,0.12-0.702,0.23-1.151,0.33
			c-0.447,0.1-0.951,0.18-1.508,0.246c-0.56,0.064-1.127,0.096-1.705,0.096c-0.957,0-1.791-0.099-2.504-0.299
			c-0.714-0.197-1.308-0.502-1.787-0.91s-0.838-0.93-1.076-1.563s-0.359-1.384-0.359-2.25c0-0.668,0.063-1.382,0.188-2.146
			c0.125-0.762,0.328-1.515,0.605-2.256c0.279-0.744,0.637-1.453,1.076-2.13c0.438-0.678,0.969-1.272,1.592-1.786
			c0.623-0.516,1.342-0.926,2.158-1.233c0.818-0.31,1.75-0.464,2.797-0.464c0.908,0,1.688,0.107,2.34,0.32
			c0.65,0.215,1.188,0.5,1.607,0.853c0.418,0.354,0.729,0.759,0.934,1.212C123.918,20.452,124.021,20.919,124.021,21.396z
			 M120.328,21.682c0-0.397-0.156-0.729-0.471-0.994s-0.771-0.396-1.369-0.396c-0.498,0-0.943,0.09-1.336,0.269
			c-0.396,0.178-0.74,0.42-1.039,0.725c-0.301,0.303-0.557,0.662-0.771,1.076c-0.215,0.414-0.389,0.854-0.516,1.322h1.254
			c0.799,0,1.465-0.053,2.004-0.156c0.539-0.104,0.974-0.247,1.299-0.428c0.33-0.179,0.568-0.392,0.72-0.636
			C120.254,22.221,120.328,21.961,120.328,21.682z"/>
		<path fill="#FFFFFF" d="M139.879,22.697c0,0.646-0.061,1.344-0.18,2.093c-0.119,0.745-0.303,1.487-0.553,2.228
			c-0.25,0.736-0.568,1.446-0.957,2.129c-0.387,0.682-0.854,1.283-1.396,1.802c-0.545,0.518-1.168,0.931-1.869,1.239
			c-0.703,0.311-1.494,0.463-2.369,0.463c-0.397,0-0.772-0.037-1.121-0.119c-0.35-0.078-0.672-0.189-0.965-0.336
			c-0.295-0.145-0.559-0.313-0.799-0.508s-0.451-0.4-0.631-0.621l-1.178,6.024c-0.021,0.101-0.068,0.188-0.144,0.269
			s-0.19,0.146-0.346,0.201c-0.154,0.058-0.354,0.1-0.604,0.127c-0.25,0.03-0.558,0.045-0.927,0.045
			c-0.368,0-0.67-0.015-0.896-0.045c-0.23-0.027-0.412-0.069-0.547-0.127c-0.133-0.055-0.222-0.121-0.262-0.201
			c-0.041-0.08-0.052-0.17-0.029-0.269l3.735-18.64c0.041-0.209,0.193-0.357,0.464-0.449c0.27-0.088,0.715-0.134,1.332-0.134
			c0.307,0,0.561,0.013,0.754,0.037c0.194,0.024,0.35,0.06,0.463,0.104c0.115,0.046,0.192,0.104,0.231,0.179
			c0.039,0.076,0.05,0.164,0.031,0.264l-0.42,2.167c0.147-0.33,0.385-0.671,0.709-1.024c0.323-0.353,0.713-0.677,1.166-0.971
			c0.452-0.294,0.952-0.536,1.495-0.725c0.543-0.189,1.105-0.284,1.683-0.284c0.769,0,1.412,0.132,1.937,0.396
			c0.522,0.264,0.946,0.625,1.271,1.084c0.322,0.458,0.558,0.996,0.703,1.614C139.805,21.326,139.879,21.989,139.879,22.697z
			 M136.01,23.025c0-0.34-0.029-0.646-0.084-0.926c-0.055-0.281-0.145-0.518-0.27-0.713c-0.123-0.193-0.283-0.342-0.479-0.439
			c-0.19-0.1-0.43-0.148-0.709-0.148c-0.446,0-0.897,0.133-1.352,0.396s-0.882,0.623-1.279,1.076
			c-0.396,0.453-0.752,0.981-1.062,1.584c-0.311,0.603-0.526,1.246-0.657,1.935l-0.418,2.033c0.35,0.549,0.733,0.961,1.157,1.233
			c0.425,0.273,0.916,0.411,1.474,0.411c0.407,0,0.785-0.101,1.129-0.3c0.345-0.201,0.651-0.467,0.929-0.8
			c0.271-0.334,0.512-0.72,0.717-1.16c0.203-0.438,0.373-0.896,0.51-1.375c0.133-0.479,0.232-0.958,0.299-1.44
			C135.977,23.911,136.01,23.455,136.01,23.025z"/>
	</g>
	<g>
		<polygon fill="#FACD3A" points="10.968,18.542 10.968,24.781 16.766,27.827 16.766,21.784 		"/>
		<polygon fill="#FACD3A" points="10.968,31.119 10.968,37.507 16.766,40.604 16.766,34.166 		"/>
		<polygon fill="#CA71AA" points="10.968,24.781 10.968,31.169 16.766,34.264 16.766,27.827 		"/>
		<polygon fill="#BD5499" points="5.121,21.784 5.121,27.975 10.968,31.169 10.968,24.781 		"/>
		<polygon fill="#E83F75" points="10.968,18.542 5.121,21.784 10.968,25.126 		"/>
		<polygon fill="#BD5298" points="16.766,27.827 22.171,31.119 22.171,37.508 16.766,34.264 		"/>
		<polygon fill="#E73E73" points="22.171,31.119 27.527,28.023 27.527,34.264 22.171,37.508 		"/>
		<polygon fill="#39B839" points="16.415,15.483 10.968,12.548 16.569,9.549 21.827,12.516 		"/>
		<polygon fill="#83C9A2" points="10.968,12.548 10.968,18.542 16.415,15.483 		"/>
		<polygon fill="#F5A877" points="16.766,40.604 22.171,37.508 16.766,34.264 		"/>
		<polygon fill="#39B839" points="22.171,37.508 27.527,34.264 27.527,40.604 		"/>
		<polygon fill="#83C9A2" points="27.527,34.264 32.76,31.119 32.76,37.188 27.527,40.604 		"/>
		<polygon fill="#EB668F" points="32.76,31.119 32.76,24.941 27.527,28.023 27.527,34.264 		"/>
		<polygon fill="#BC5299" points="32.76,18.713 37.908,21.833 32.76,24.941 		"/>
		<polygon fill="#E73D72" points="32.76,24.941 37.908,21.833 37.908,28.295 32.76,31.119 		"/>
		<polygon fill="#FACD3A" points="27.282,15.698 32.76,18.713 32.687,12.497 		"/>
		<polygon fill="#FBD862" points="16.415,15.483 22.171,18.631 16.766,21.784 10.968,18.542 		"/>
		<polygon fill="#88D488" points="21.827,12.516 27.282,15.698 22.171,18.631 16.415,15.483 		"/>
		<polygon fill="#FBD862" points="26.93,9.397 32.687,12.545 27.282,15.698 21.827,12.516 		"/>
		<polygon fill="#39B839" points="22.094,18.634 27.527,21.784 32.76,18.713 27.282,15.698 		"/>
		<polygon fill="#83C9A2" points="27.527,21.784 27.527,28.023 32.76,24.941 32.76,18.713 		"/>
	</g>
</g>
</svg>
